<?xml version="1.0" encoding="utf-8"?>
<!-- Generator: Adobe Illustrator 21.0.0, SVG Export Plug-In . SVG Version: 6.00 Build 0)  -->
<svg version="1.1" xmlns="http://www.w3.org/2000/svg" xmlns:xlink="http://www.w3.org/1999/xlink" x="0px" y="0px"
	 viewBox="0 0 400 400" style="enable-background:new 0 0 400 400;" xml:space="preserve">
<style type="text/css">
	.st0{fill:none;stroke:#000000;stroke-width:10;stroke-linejoin:round;stroke-miterlimit:10;}
	.st1{fill:none;stroke:#000000;stroke-width:3;stroke-linejoin:round;stroke-miterlimit:10;}
	.st2{fill:none;stroke:#000000;stroke-width:10;stroke-miterlimit:10;}
</style>
<g id="Mexican_1_">
</g>
<g id="Brazilian_1_">
</g>
<g id="Abu_Dhabi_1_">
</g>
<g id="Canadian_1_">
</g>
<g id="Azerbaijan">
</g>
<g id="Austrian_1_">
	<line class="st1" x1="261.2" y1="390.9" x2="261.5" y2="346.9"/>
	<polygon points="229,380.4 254.8,387.3 255.1,374.7 	"/>
	<path class="st0" d="M118.1,364.4l225,2.4l38.5-6.5c0,0,7.8-2.7,8-12.1s0.3-57.5,0.3-57.5s0.4-5.8-6.5-11.2
		c-6.9-5.4-8-5.7-15.8-7.7s-151-39.8-151-39.8s-5.5-1.5-12.8-1c-7.2,0.5-15.6,0.6-21.5,5c-5.9,4.4-30.9,18-30.9,18
		s-5.6,3.3-15.6,0.6s-15.5-4.1-19.9-14.7c-4.3-10.6-14.5-62-14.5-62s0-17.8,13.4-23.8s20.4-5.3,27.9-2.1
		c7.5,3.2,33.2,18.3,51.8,24.3c18.6,6.1,41.4,9.7,60.2-3.1c18.8-12.8,21.6-14.5,22.8-18.9c1.2-4.4,2.9-11.1-3.4-14
		c-6.4-2.9-93.4-33-105-38.4S80.4,59.4,74.9,57.9C69.3,56.5,18,44.1,18,44.1s-10.3-1.5-9.5,4.6c0.8,6.1,46.9,96.7,46.9,96.7
		l28.9,133.5c0,0,22.7,53.5,23.4,59.6c0.8,6.1,5,21.5,5,21.5S112.9,363.6,118.1,364.4z"/>
</g>
<g id="British_1_">
</g>
<g id="Hungary_1_">
</g>
<g id="Belgium">
</g>
<g id="Italy">
</g>
<g id="Singapore_1_">
</g>
<g id="Malaysian_1_">
</g>
<g id="Japan_1_">
</g>
<g id="US_1_">
</g>
<g id="Monaco_1_">
</g>
<g id="Russian_1_">
</g>
<g id="Spanish_1_">
</g>
<g id="Bahrain_1_">
</g>
<g id="Chinese_1_">
</g>
<g id="Australia_1_">
</g>
</svg>
