<?xml version="1.0" encoding="utf-8"?>
<!-- Generator: Adobe Illustrator 21.0.0, SVG Export Plug-In . SVG Version: 6.00 Build 0)  -->
<svg version="1.1" xmlns="http://www.w3.org/2000/svg" xmlns:xlink="http://www.w3.org/1999/xlink" x="0px" y="0px"
	 viewBox="0 0 400 400" style="enable-background:new 0 0 400 400;" xml:space="preserve">
<style type="text/css">
	.st0{fill:none;stroke:#000000;stroke-width:10;stroke-linejoin:round;stroke-miterlimit:10;}
	.st1{fill:none;stroke:#000000;stroke-width:3;stroke-linejoin:round;stroke-miterlimit:10;}
	.st2{fill:none;stroke:#000000;stroke-width:10;stroke-miterlimit:10;}
</style>
<g id="Mexican_1_">
</g>
<g id="Brazilian_1_">
</g>
<g id="Abu_Dhabi_1_">
</g>
<g id="Canadian_1_">
</g>
<g id="Azerbaijan">
</g>
<g id="Austrian_1_">
</g>
<g id="British_1_">
</g>
<g id="Hungary_1_">
</g>
<g id="Belgium">
</g>
<g id="Italy">
	<path class="st2" d="M13,116c0,0,38-8,44-8s8-2,12,6s19,36,22,39s71,69,80,76s14,9,20,9s12-4,16,0s5,7,12,7s155,0,155,0s15,0,12,14
		s-15,23-23,25s-19,2-25,3s-5,4-14,4s-166,2-166,2s-4-1-5-4s-3-2-7-1s-20,9-47,7s-44-18-47-26s-10.5-44.5-13.5-65.5s-2-23-7-25
		s-4-3-7-9s-15-29-16-34S8.5,116.5,13,116z"/>
	<line class="st1" x1="232.2" y1="317" x2="232.4" y2="273"/>
	<polygon points="200,306.6 225.9,313.4 226.1,300.8 	"/>
</g>
<g id="Singapore_1_">
</g>
<g id="Malaysian_1_">
</g>
<g id="Japan_1_">
</g>
<g id="US_1_">
</g>
<g id="Monaco_1_">
</g>
<g id="Russian_1_">
</g>
<g id="Spanish_1_">
</g>
<g id="Bahrain_1_">
</g>
<g id="Chinese_1_">
</g>
<g id="Australia_1_">
</g>
</svg>
