<?xml version="1.0" encoding="utf-8"?>
<!-- Generator: Adobe Illustrator 21.0.0, SVG Export Plug-In . SVG Version: 6.00 Build 0)  -->
<svg version="1.1" xmlns="http://www.w3.org/2000/svg" xmlns:xlink="http://www.w3.org/1999/xlink" x="0px" y="0px"
	 viewBox="0 0 400 400" style="enable-background:new 0 0 400 400;" xml:space="preserve">
<style type="text/css">
	.st0{fill:none;stroke:#000000;stroke-width:10;stroke-linejoin:round;stroke-miterlimit:10;}
	.st1{fill:none;stroke:#000000;stroke-width:3;stroke-linejoin:round;stroke-miterlimit:10;}
	.st2{fill:none;stroke:#000000;stroke-width:10;stroke-miterlimit:10;}
</style>
<g id="Mexican_1_">
</g>
<g id="Brazilian_1_">
</g>
<g id="Abu_Dhabi_1_">
</g>
<g id="Canadian_1_">
</g>
<g id="Azerbaijan">
</g>
<g id="Austrian_1_">
</g>
<g id="British_1_">
</g>
<g id="Hungary_1_">
	<path class="st2" d="M38,389h309c0,0,22-4,22-26s-18-25-25-25s-53,0-53,0s-14,2-14-18s26-16,40-15s40,6,47,6s13-4,12-17
		s4-138,4-138s-1-12-15-16s-46.5-7.5-60.5-27.5s-16-42-31-54s-31,5-31,5s-14,10-21,10s-12-5-20-9s-37-23-38-28s1-18-8-20s-79-6-79-6
		s-21,0-27,12s-5,24,7,34s49,31,51,36s2,15,2,20s0,12,2,22s29,137,29,137s2,7,6,10s37,14,42,18s13,10,12,22s-11,17-30,17s-72-1-82,0
		s-38,12-51,25S25.5,384.5,38,389z"/>
	<line class="st1" x1="273.2" y1="412" x2="273.4" y2="368"/>
	<polygon points="241,401.5 266.8,408.4 267.1,395.8 	"/>
</g>
<g id="Belgium">
</g>
<g id="Italy">
</g>
<g id="Singapore_1_">
</g>
<g id="Malaysian_1_">
</g>
<g id="Japan_1_">
</g>
<g id="US_1_">
</g>
<g id="Monaco_1_">
</g>
<g id="Russian_1_">
</g>
<g id="Spanish_1_">
</g>
<g id="Bahrain_1_">
</g>
<g id="Chinese_1_">
</g>
<g id="Australia_1_">
</g>
</svg>
