<?xml version="1.0" encoding="utf-8"?>
<!-- Generator: Adobe Illustrator 21.0.0, SVG Export Plug-In . SVG Version: 6.00 Build 0)  -->
<svg version="1.1" xmlns="http://www.w3.org/2000/svg" xmlns:xlink="http://www.w3.org/1999/xlink" x="0px" y="0px"
	 viewBox="0 0 400 400" style="enable-background:new 0 0 400 400;" xml:space="preserve">
<style type="text/css">
	.st0{fill:none;stroke:#000000;stroke-width:10;stroke-linejoin:round;stroke-miterlimit:10;}
	.st1{fill:none;stroke:#000000;stroke-width:3;stroke-linejoin:round;stroke-miterlimit:10;}
	.st2{fill:none;stroke:#000000;stroke-width:10;stroke-miterlimit:10;}
</style>
<g id="Mexican_1_">
</g>
<g id="Brazilian_1_">
</g>
<g id="Abu_Dhabi_1_">
</g>
<g id="Canadian_1_">
</g>
<g id="Azerbaijan">
</g>
<g id="Austrian_1_">
</g>
<g id="British_1_">
</g>
<g id="Hungary_1_">
</g>
<g id="Belgium">
</g>
<g id="Italy">
</g>
<g id="Singapore_1_">
</g>
<g id="Malaysian_1_">
</g>
<g id="Japan_1_">
	<line class="st1" x1="215.5" y1="35.2" x2="242.6" y2="70"/>
	<polygon points="247.3,23.5 222.8,34.1 230.3,44.2 	"/>
	<path class="st2" d="M154,158c0,0,15,23,25,36s17,20,14,38s-57,122-57,122s-19,25-29,32s-22,12-25,1s-6-25,2-29s32-7,48-22
		s28-40,22-60s-28-30-31-31s-9-6-5-11s6-1,13,3s11,5,17,6s54-5,54-5s10,0,9-8s0-24,0-24s-2-3-6-6s-22-21-25-29s-10-18-3-39
		s21-21,25-19s15,10,24,8s12-8,13-17s2-18,14-21s20,1,24-10s0-16,19-26s27-19,26-25s-9-14-21-13s-35,19-35,19l-91,62
		c0,0-28.2,19.7-23,36c6,19,5,16,3,20C151,154,151,154,154,158z"/>
</g>
<g id="US_1_">
</g>
<g id="Monaco_1_">
</g>
<g id="Russian_1_">
</g>
<g id="Spanish_1_">
</g>
<g id="Bahrain_1_">
</g>
<g id="Chinese_1_">
</g>
<g id="Australia_1_">
</g>
</svg>
