{"races":[
        {
            "raceName":"2018 FORMULA 1 ROLEX AUSTRALIAN GRAND PRIX",
            "raceDate": "2018-03-25T06:10:00+01:00",
            "predictionDate": "2018-03-24T06:00:00",
            "lastYearPoleTime":"1:22.188",
            "raceWeekend":"Friday 23 - Sunday 25, March 2018",
            "raceLocation":"Melbourne, Australia",
            "raceCircuit":"Albert Park Circuit",
            "raceFlag":"flags/01australia.svg",
            "raceMap":"tracks/CircuitMaps__Australia.svg",
            "raceShortName":"Australian GP"
        },
        {
            "raceName":"2018 FORMULA 1 GULF AIR BAHRAIN GRAND PRIX",
            "raceDate": "2018-04-08T16:10:00+01:00",
            "predictionDate": "2018-04-07T16:00:00+01:00",
            "lastYearPoleTime":"1:28.769",
            "raceWeekend":"Friday 6 - Sunday 8, April 2018",
            "raceLocation":"Bahrain",
            "raceCircuit":"Bahrain International Circuit",
            "raceFlag":"flags/03bahrain.svg",
            "raceMap":"tracks/CircuitMaps__Bahrain.svg",
            "raceShortName":"Bahrain GP"
        },
        {
            "raceName":"2018 FORMULA 1 HEINEKEN CHINESE GRAND PRIX",
            "raceDate": "2018-04-15T07:10:00+01:00",
            "predictionDate": "2018-04-14T07:00:00+01:00",
            "lastYearPoleTime":"1:31.678",
            "raceWeekend":"Friday 13 - Sunday 15, April 2018",
            "raceLocation":"Shaghai, China",
            "raceCircuit":"Shanghai International Circuit",
            "raceFlag":"flags/02china.svg",
            "raceMap":"tracks/CircuitMaps__China.svg",
            "raceShortName":"Chinese GP"
        },
        {
            "raceName":"2018 FORMULA 1 AZERBAIJAN GRAND PRIX",
            "raceDate": "2018-04-29T13:10:00+01:00",
            "predictionDate": "2018-04-28T14:00:00+01:00",
            "lastYearPoleTime":"1:40.593",
            "raceWeekend":"Friday 27 - Sunday 29, April 2018",
            "raceLocation":"Baku, Azerbaijan",
            "raceCircuit":"Baku City Circuit",
            "raceFlag":"flags/08azerbaijan.svg",
            "raceMap":"tracks/CircuitMaps__Azerbaijan.svg",
            "raceShortName":"Azerbaijan GP"
        },
        {
            "raceName":"FORMULA 1 GRAN PREMIO DE ESPAÑA 2018",
            "raceDate": "2018-05-13T14:10:00+01:00",
            "predictionDate": "2018-05-12T14:00:00+01:00",
            "lastYearPoleTime":"1:19.149",
            "raceWeekend":"Friday 11 - Sunday 13, May 2018",
            "raceLocation":"Barcelona, Spain",
            "raceCircuit":"Circuit De Catalunya",
            "raceFlag":"flags/05spain.svg",
            "raceMap":"tracks/CircuitMaps__Spain.svg",
            "raceShortName":"Spanish GP"
        },
        {
            "raceName":"FORMULA 1 GRAND PRIX DE MONACO 2018",
            "raceDate": "2018-05-27T14:10:00+01:00",
            "predictionDate": "2018-05-26T14:00:00+01:00",
            "lastYearPoleTime":"1:12.178",
            "raceWeekend":"Friday 25 - Sunday 27, May 2018",
            "raceLocation":"Monte Carlo, Monaco",
            "raceCircuit":"Circuit De Monaco",
            "raceFlag":"flags/06monaco.svg",
            "raceMap":"tracks/CircuitMaps__Monaco.svg",
            "raceShortName":"Monaco GP"
        },
        {
            "raceName":"FORMULA 1 GRAND PRIX DU CANADA 2018",
            "raceDate": "2018-06-10T19:10:00+01:00",
            "predictionDate": "2018-06-09T19:00:00+01:00",
            "lastYearPoleTime":"1:11.459",
            "raceWeekend":"Friday 8 - Sunday 10, June 2018",
            "raceLocation":"Montreal, Canada",
            "raceCircuit":"Circuit Gilles Villeneuve",
            "raceFlag":"flags/07canada.svg",
            "raceMap":"tracks/CircuitMaps__Canada.svg",
            "raceShortName":"Canadian GP"
        },
        {
            "raceName":"FRENCH FORMULA 1 GRAND PRIX 2018",
            "raceDate": "2018-06-24T15:10:00+01:00",
            "predictionDate": "2018-06-23T15:00:00+01:00",
            "lastYearPoleTime":"",
            "raceWeekend":"Friday 22 - Sunday 24, June 2018",
            "raceLocation":"Le Castellet, France",
            "raceCircuit":"Circuit Paul Ricard",
            "raceFlag":"flags/21france.svg",
            "raceMap":"tracks/CircuitMaps__France.svg",
            "raceShortName":"French GP"
        },
        {
            "raceName":"FORMULA 1 GROSSER PREIS VON ÖSTERREICH 2018",
            "raceDate": "2018-07-01T14:10:00+01:00",
            "predictionDate": "2018-06-30T14:00:00+01:00",
            "lastYearPoleTime":"1:04.251",
            "raceWeekend":"Friday 29, June 2018 - Sunday 1, July 2018",
            "raceLocation":"Spielberg, Austria",
            "raceCircuit":"Red Bull Ring",
            "raceFlag":"flags/09austria.svg",
            "raceMap":"tracks/CircuitMaps__Austrian.svg",
            "raceShortName":"Austrian GP"
        },
        {
            "raceName":"2018 FORMULA 1 BRITISH GRAND PRIX",
            "raceDate": "2018-07-08T14:10:00+01:00",
            "predictionDate": "2018-07-07T14:00:00+01:00",
            "lastYearPoleTime":"1:26.600",
            "raceWeekend":"Friday 6 - Sunday 8, July 2018",
            "raceLocation":"Silverstone, United Kingdom",
            "raceCircuit":"Silverstone Circuit",
            "raceFlag":"flags/10greatbritain.svg",
            "raceMap":"tracks/CircuitMaps__British.svg",
            "raceShortName":"British GP"
        },
        {
            "raceName":"FORMULA 1 GROSSER PREIS VON DEUTSCHLAND 2018",
            "raceDate": "2018-07-22T14:10:00+01:00",
            "predictionDate": "2018-07-21T14:00:00+01:00",
            "lastYearPoleTime":"",
            "raceWeekend":"Friday 20 - Sunday 22, July 2018",
            "raceLocation":"Hockenheim, Germany",
            "raceCircuit":"Hockenheimring",
            "raceFlag":"flags/22germany.svg",
            "raceMap":"tracks/CircuitMaps__Germany.svg",
            "raceShortName":"German GP"
        },
        {
            "raceName":"FORMULA 1 MAGYAR NAGYDÍJ 2018",
            "raceDate": "2018-07-29T14:10:00+01:00",
            "predictionDate": "2018-07-28T14:00:00+01:00",
            "lastYearPoleTime":"1:16.276",
            "raceWeekend":"Friday 27 - Sunday 29, July 2018",
            "raceLocation":"Budapest, Hungary",
            "raceCircuit":"Hungaroring",
            "raceFlag":"flags/11hungary.svg",
            "raceMap":"tracks/CircuitMaps__Hungary.svg",
            "raceShortName":"Hungarian GP"
        },
        {
            "raceName":"2018 FORMULA 1 BELGIAN GRAND PRIX",
            "raceDate": "2018-08-26T14:10:00+01:00",
            "predictionDate": "2018-08-25T14:00:00+01:00",
            "lastYearPoleTime":"1:42.553",
            "raceWeekend":"Friday 24 - Sunday 26, August 2018",
            "raceLocation":"Spa-Francorchamps, Belgium",
            "raceCircuit":"Circuit de Spa Francorchamps",
            "raceFlag":"flags/12belgium.svg",
            "raceMap":"tracks/CircuitMaps__Belgium.svg",
            "raceShortName":"Belgian GP"
        },
        {
            "raceName":"FORMULA 1 GRAN PREMIO HEINEKEN D'ITALIA 2018",
            "raceDate": "2018-09-02T14:10:00+01:00",
            "predictionDate": "2018-09-01T14:00:00+01:00",
            "lastYearPoleTime":"1:35.554",
            "raceWeekend":"Friday 31, August 2018 - Sunday 2, September 2018",
            "raceLocation":"Monza, Italy",
            "raceCircuit":"Autodromo Nazionale di Monza",
            "raceFlag":"flags/13italy.svg",
            "raceMap":"tracks/CircuitMaps__Italy.svg",
            "raceShortName":"Italian GP"
        },
        {
            "raceName":"2018 FORMULA 1 SINGAPORE AIRLINES SINGAPORE GRAND PRIX",
            "raceDate": "2018-09-16T13:10:00+01:00",
            "predictionDate": "2018-09-15T14:00:00+01:00",
            "lastYearPoleTime":"1:39.491",
            "raceWeekend":"Friday 14 - Sunday 16, September 2018",
            "raceLocation":"Singapore, Singapore",
            "raceCircuit":"Marina Bay Street Circuit",
            "raceFlag":"flags/14singapore.svg",
            "raceMap":"tracks/CircuitMaps__Singapore.svg",
            "raceShortName":"Singapore GP"
        },
        {
            "raceName":"2018 FORMULA 1 RUSSIAN GRAND PRIX",
            "raceDate": "2018-09-30T12:10:00+01:00",
            "predictionDate": "2018-09-29T13:00:00+01:00",
            "lastYearPoleTime":"1:33.194",
            "raceWeekend":"Friday 28 - Sunday 30, September 2018",
            "raceLocation":"Sochi, Russia",
            "raceCircuit":"Sochi Autodrom",
            "raceFlag":"flags/04russia.svg",
            "raceMap":"tracks/CircuitMaps__Russia.svg",
            "raceShortName":"Russian GP"
        },
        {
            "raceName":"2018 FORMULA 1 JAPANESE GRAND PRIX",
            "raceDate": "2018-10-07T19:10:00+01:00",
            "predictionDate": "2018-10-06T07:00:00+01:00",
            "lastYearPoleTime":"1:27.319",
            "raceWeekend":"Friday 5 - Sunday 7, October 2018",
            "raceLocation":"Suzuka, Japan",
            "raceCircuit":"Suzuka Circuit",
            "raceFlag":"flags/16japan.svg",
            "raceMap":"tracks/CircuitMaps__Japan.svg",
            "raceShortName":"Japanese GP"
        },
        {
            "raceName":"2018 FORMULA 1 UNITED STATES GRAND PRIX",
            "raceDate": "2018-10-21T19:10:00+01:00",
            "predictionDate": "2018-10-20T22:00:00+01:00",
            "lastYearPoleTime":"1:33.108",
            "raceWeekend":"Friday 19 - Sunday 21, October 2018",
            "raceLocation":"Austin, USA",
            "raceCircuit":"Circuit of the Americas",
            "raceFlag":"flags/17unitedstates.svg",
            "raceMap":"tracks/CircuitMaps__US.svg",
            "raceShortName":"USA GP"
        },
        {
            "raceName":"FORMULA 1 GRAN PREMIO DE MÉXICO 2018",
            "raceDate": "2018-10-28T19:10:00",
            "predictionDate": "2018-10-27T19:00:00+01:00",
            "lastYearPoleTime":"1:16.488",
            "raceWeekend":"Friday 26 - Sunday 28, October 2018",
            "raceLocation":"Mexico City, Mexico",
            "raceCircuit":"Autodromo Hermanos Rodriguez",
            "raceFlag":"flags/18mexico.svg",
            "raceMap":"tracks/CircuitMaps__Mexico.svg",
            "raceShortName":"Mexican GP"
        },
        {
            "raceName":"FORMULA 1 GRANDE PRÊMIO DO BRASIL 2018",
            "raceDate": "2018-11-11T17:10:00",
            "predictionDate": "2018-11-10T17:00:00",
            "lastYearPoleTime":"1:08.322",
            "raceWeekend":"Friday 9 - Sunday 11, November 2018",
            "raceLocation":"Sao Paolo, Brazil",
            "raceCircuit":"Autodromo de Interlagos",
            "raceFlag":"flags/19brazil.svg",
            "raceMap":"tracks/CircuitMaps__Brazilian.svg",
            "raceShortName":"Brazil GP"
        },
        {
            "raceName":"2018 FORMULA 1 ETIHAD AIRWAYS ABU DHABI GRAND PRIX",
            "raceDate": "2018-11-25T13:10:00",
            "predictionDate": "2018-11-24T13:00:00",
            "lastYearPoleTime":"1:36.231",
            "raceWeekend":"Friday 23 - Sunday 25, November 2018",
            "raceLocation":"Abu Dhabi, UAE",
            "raceCircuit":"Yas Marina Circuit",
            "raceFlag":"flags/20abudhabi.svg",
            "raceMap":"tracks/CircuitMaps__AbuDhabi.svg",
            "raceShortName":"Abu Dhabi GP"
        }
    ]
}
