<?xml version="1.0" encoding="utf-8"?>
<!-- Generator: Adobe Illustrator 21.0.2, SVG Export Plug-In . SVG Version: 6.00 Build 0)  -->
<svg version="1.1" id="Layer_3" xmlns="http://www.w3.org/2000/svg" xmlns:xlink="http://www.w3.org/1999/xlink" x="0px" y="0px"
	 viewBox="0 0 83 78.5" style="enable-background:new 0 0 83 78.5;" xml:space="preserve">
<style type="text/css">
	.st0{fill:#FFFFFF;}
</style>
<g>
	<g>
		<path class="st0" d="M68,23.5l0.7,0.7l5.6-5.6L68.7,13l-5.6,5.6l0.7,0.7l-2.5,2.5c-4.7-4.3-10.8-7.2-17.5-7.8v-2.3h1V3.7h-7.9v7.9
			h1v2.3C31.4,14.6,25.6,17.1,21,21l-1.8-1.8l0.7-0.7L14.3,13l-5.6,5.6l5.6,5.6l0.7-0.7l1.9,1.9c-4.1,5.2-6.6,11.8-6.6,18.9
			c0,16.8,13.7,30.5,30.5,30.5s30.5-13.7,30.5-30.5c0-6.8-2.2-13-5.9-18.1L68,23.5z M40.8,68.8c-13.5,0-24.5-11-24.5-24.5
			s11-24.5,24.5-24.5s24.5,11,24.5,24.5S54.3,68.8,40.8,68.8z"/>
	</g>
	<polygon class="st0" points="56.9,54.7 52.6,58.9 37.5,43.8 41.8,39.5 	"/>
</g>
</svg>
