<?xml version="1.0" encoding="utf-8"?>
<!-- Generator: Adobe Illustrator 21.0.2, SVG Export Plug-In . SVG Version: 6.00 Build 0)  -->
<svg version="1.1" id="Art" xmlns="http://www.w3.org/2000/svg" xmlns:xlink="http://www.w3.org/1999/xlink" x="0px" y="0px"
	 viewBox="0 0 285.1 62.6" style="enable-background:new 0 0 285.1 62.6;" xml:space="preserve">
<style type="text/css">
	.st0{fill:#FFFFFF;}
</style>
<g>

		<image style="overflow:visible;opacity:0.75;" width="1200" height="245" xlink:href="logoshadow.png"  transform="matrix(0.24 0 0 0.24 3.5702 6.9592)">
	</image>
	<g>
		<g>
			<g>
				<path class="st0" d="M115.1,45V17.4h11.1c5.5,0,8.7,3.8,8.7,8.3c0,4.5-3.2,8.3-8.7,8.3h-7.7v11H115.1z M131.2,25.7
					c0-3.1-2.2-5.3-5.5-5.3h-7.2V31h7.2C129,31,131.2,28.8,131.2,25.7z"/>
				<path class="st0" d="M139.3,45V17.4h3.4V45H139.3z"/>
				<path class="st0" d="M156.1,45V20.5h-8.7v-3.1h20.9v3.1h-8.8V45H156.1z"/>
				<path class="st0" d="M193.9,45l-6.1-22.3L181.8,45H178l-7.9-27.6h3.8l6.1,23l6.3-23h2.9l6.3,23l6.1-23h3.8L197.7,45H193.9z"/>
				<path class="st0" d="M226.5,45l-2.4-6.1h-13.7l-2.4,6.1h-3.9L215,17.4h4.3L230.4,45H226.5z M217.2,21l-5.9,14.9H223L217.2,21z"
					/>
				<path class="st0" d="M234,45V17.4h3.4v24.5h12.8V45H234z"/>
				<path class="st0" d="M255.1,45V17.4h3.4v24.5h12.8V45H255.1z"/>
			</g>
			<g>
				<g>
					<g>
						<path class="st0" d="M20.9,44.9h-7.2V17.2h10.2c6.5,0,10.5,3,10.5,8.8c0,6.5-4.7,9.7-11.4,9.7h-2.1V44.9z M22.5,30.2
							c2.8,0,4.5-0.8,4.5-3.7c0-2.8-1.5-3.6-4.1-3.6h-2v7.3H22.5z"/>
						<path class="st0" d="M45.7,17.2v18.1c0,3.2,1.6,4.1,3.9,4.1c2.2,0,3.7-1.3,3.7-3.9V17.2h7.2v19.2c0,5.6-4.5,9-11,9
							c-7.2,0-10.9-2.9-10.9-9.7V17.2H45.7z"/>
						<path class="st0" d="M91.2,17.2h18.1v6.3h-11v4.2h9.4v6.3h-9.4v4.8h11.3v6.3H91.2V17.2z"/>
						<path class="st0" d="M83.8,36.1c-0.4-1-1.1-1.8-1.8-2.2c2.6-1.6,4.2-4.2,4.2-8c0-5.8-4-8.8-10.5-8.8H65.5v27.7h7.2v-9.2h1.8
							c1,0.1,1.6,0.6,2,1.6l3.4,7.6h7.7L83.8,36.1z M72.7,30.2v-7.3h2c2.6,0,4.1,0.8,4.1,3.6c0,2.9-1.7,3.7-4.5,3.7H72.7z"/>
					</g>
				</g>
			</g>
		</g>
	</g>
</g>
</svg>
