<?xml version="1.0" encoding="utf-8"?>
<!-- Generator: Adobe Illustrator 22.0.1, SVG Export Plug-In . SVG Version: 6.00 Build 0)  -->
<svg version="1.1" id="Layer_4" xmlns="http://www.w3.org/2000/svg" xmlns:xlink="http://www.w3.org/1999/xlink" x="0px" y="0px"
	 viewBox="0 0 50 50" style="enable-background:new 0 0 50 50;" xml:space="preserve">
<g>
	<g>
		<path d="M5.5,28.8c-0.4,0-0.8-0.3-0.9-0.7l-4-11.8c-0.2-0.5,0.1-1.1,0.6-1.2l17.4-5.8c0.5-0.2,1.1,0.1,1.2,0.6l4,11.8
			c0.1,0.2,0.1,0.5-0.1,0.7c-0.1,0.2-0.3,0.4-0.6,0.5L5.8,28.7C5.7,28.7,5.6,28.8,5.5,28.8z M2.7,16.6l3.3,10l15.6-5.2l-3.3-10
			L2.7,16.6z"/>
		<path d="M3.5,22.9c-0.4,0-0.8-0.3-0.9-0.7c-0.2-0.5,0.1-1.1,0.6-1.2l17.4-5.8c0.5-0.2,1.1,0.1,1.2,0.6c0.2,0.5-0.1,1.1-0.6,1.2
			L3.8,22.8C3.7,22.8,3.6,22.9,3.5,22.9z"/>
		<path d="M17.2,24.5c-0.4,0-0.8-0.3-0.9-0.7l-3.7-11.2c-0.2-0.5,0.1-1.1,0.6-1.2c0.5-0.2,1.1,0.1,1.2,0.6l3.7,11.2
			c0.2,0.5-0.1,1.1-0.6,1.2C17.4,24.5,17.3,24.5,17.2,24.5z"/>
		<path d="M11,26.6c-0.4,0-0.8-0.3-0.9-0.7L6.3,14.7c-0.2-0.5,0.1-1.1,0.6-1.2c0.5-0.2,1.1,0.1,1.2,0.6l3.7,11.2
			c0.2,0.5-0.1,1.1-0.6,1.2C11.2,26.6,11.1,26.6,11,26.6z"/>
		<path d="M28.9,40.9c-0.4,0-0.8-0.3-0.9-0.7L21,19.4c-0.2-0.5,0.1-1.1,0.6-1.2c0.5-0.2,1.1,0.1,1.2,0.6l6.9,20.8
			c0.2,0.5-0.1,1.1-0.6,1.2C29.1,40.8,29,40.9,28.9,40.9z"/>
	</g>
	<g>
		<path d="M44.5,28.8c-0.1,0-0.2,0-0.3-0.1l-17.4-5.8c-0.2-0.1-0.5-0.3-0.6-0.5s-0.1-0.5-0.1-0.7l4-11.8c0.2-0.5,0.7-0.8,1.2-0.6
			L48.8,15c0.2,0.1,0.5,0.3,0.6,0.5c0.1,0.2,0.1,0.5,0.1,0.7l-4,11.8C45.3,28.5,45,28.8,44.5,28.8z M28.4,21.3l15.6,5.2l3.3-10
			l-15.6-5.2L28.4,21.3z"/>
		<path d="M46.5,22.9c-0.1,0-0.2,0-0.3-0.1L28.8,17c-0.5-0.2-0.8-0.7-0.6-1.2c0.2-0.5,0.7-0.8,1.2-0.6l17.4,5.8
			c0.5,0.2,0.8,0.7,0.6,1.2C47.3,22.6,46.9,22.9,46.5,22.9z"/>
		<path d="M32.8,24.5c-0.1,0-0.2,0-0.3-0.1c-0.5-0.2-0.8-0.7-0.6-1.2L35.6,12c0.2-0.5,0.7-0.8,1.2-0.6c0.5,0.2,0.8,0.7,0.6,1.2
			l-3.7,11.2C33.6,24.2,33.2,24.5,32.8,24.5z"/>
		<path d="M39,26.6c-0.1,0-0.2,0-0.3-0.1c-0.5-0.2-0.8-0.7-0.6-1.2l3.7-11.2c0.2-0.5,0.7-0.8,1.2-0.6c0.5,0.2,0.8,0.7,0.6,1.2
			L40,25.9C39.8,26.3,39.5,26.6,39,26.6z"/>
		<path d="M21.1,40.9c-0.1,0-0.2,0-0.3-0.1c-0.5-0.2-0.8-0.7-0.6-1.2l6.9-20.8c0.2-0.5,0.7-0.8,1.2-0.6c0.5,0.2,0.8,0.7,0.6,1.2
			l-6.9,20.8C21.9,40.6,21.5,40.9,21.1,40.9z"/>
	</g>
</g>
</svg>
