<?xml version="1.0" encoding="utf-8"?>
<!-- Generator: Adobe Illustrator 21.0.2, SVG Export Plug-In . SVG Version: 6.00 Build 0)  -->
<svg version="1.1" id="Layer_1" xmlns="http://www.w3.org/2000/svg" xmlns:xlink="http://www.w3.org/1999/xlink" x="0px" y="0px"
	 viewBox="0 0 1588.9 239.1" style="enable-background:new 0 0 1588.9 239.1;" xml:space="preserve">
<style type="text/css">
	.st0{fill:#FFFFFF;}
</style>
<path class="st0" d="M0,0v239.1h1588.9V0H0z M209.8,137.4c0,49.8-40.5,90.3-90.3,90.3c-49.8,0-90.3-40.5-90.3-90.3
	c0-20.2,6.7-38.9,17.9-53.9l-6.3-6.3l-0.1,0.1l-3.2,3.2L17.3,60.2l20.3-20.3l20.3,20.3l-3.1,3.2l-0.1,0.1l5.7,5.7
	c13.3-11.5,29.9-19.2,48.2-21.4V38h-9.9V15.3h42.6V38h-9.9v9.9c18.2,2.4,34.7,10.2,47.8,21.8l3-3l3.3-3.3l-3.2-3.2l20.3-20.3
	l20.3,20.3l-20.3,20.3l-3.2-3.2l-0.1-0.1l-3.3,3.3l-3.6,3.6C203.3,99,209.8,117.5,209.8,137.4z M434.6,137.4
	c0,49.8-40.5,90.3-90.3,90.3c-49.8,0-90.3-40.5-90.3-90.3c0-20.2,6.7-38.9,17.9-53.9l-6.3-6.3l-0.1,0.1l-3.2,3.2l-20.3-20.3
	l20.3-20.3l20.3,20.3l-3.1,3.2l-0.1,0.1l5.7,5.7c13.3-11.5,29.9-19.2,48.2-21.4V38h-9.9V15.3h42.6V38h-9.9v9.9
	c18.2,2.4,34.7,10.2,47.8,21.8l3-3l3.3-3.3l-3.2-3.2l20.3-20.3l20.3,20.3l-20.3,20.3l-3.2-3.2l-0.1-0.1l-3.3,3.3l-3.6,3.6
	C428.1,99,434.6,117.5,434.6,137.4z M659.5,137.4c0,49.8-40.5,90.3-90.3,90.3c-49.8,0-90.3-40.5-90.3-90.3
	c0-20.2,6.7-38.9,17.9-53.9l-6.3-6.3l-0.1,0.1l-3.2,3.2L467,60.2l20.3-20.3l20.3,20.3l-3.1,3.2l-0.1,0.1l5.7,5.7
	c13.3-11.5,29.9-19.2,48.2-21.4V38h-9.9V15.3h42.6V38H581v9.9c18.2,2.4,34.7,10.2,47.8,21.8l3-3l3.3-3.3l-3.2-3.2L652,39.9
	l20.3,20.3L652,80.5l-3.2-3.2l-0.1-0.1l-3.3,3.3l-3.6,3.6C653,99,659.5,117.5,659.5,137.4z M884.3,137.4c0,49.8-40.5,90.3-90.3,90.3
	c-49.8,0-90.3-40.5-90.3-90.3c0-20.2,6.7-38.9,17.9-53.9l-6.3-6.3l-0.1,0.1l-3.2,3.2l-20.3-20.3l20.3-20.3l20.3,20.3l-3.1,3.2
	l-0.1,0.1l5.7,5.7c13.3-11.5,29.9-19.2,48.2-21.4V38h-9.9V15.3h42.6V38h-9.9v9.9c18.2,2.4,34.7,10.2,47.8,21.8l3-3l3.3-3.3l-3.2-3.2
	l20.3-20.3l20.3,20.3l-20.3,20.3l-3.2-3.2l-0.1-0.1l-3.3,3.3l-3.6,3.6C877.8,99,884.3,117.5,884.3,137.4z M1109.1,137.4
	c0,49.8-40.5,90.3-90.3,90.3c-49.8,0-90.3-40.5-90.3-90.3c0-20.2,6.7-38.9,17.9-53.9l-6.3-6.3l-0.1,0.1l-3.2,3.2l-20.3-20.3
	l20.3-20.3l20.3,20.3l-3.1,3.2l-0.1,0.1l5.7,5.7c13.3-11.5,29.9-19.2,48.2-21.4V38H998V15.3h42.6V38h-9.9v9.9
	c18.2,2.4,34.7,10.2,47.8,21.8l3-3l3.3-3.3l-3.2-3.2l20.3-20.3l20.3,20.3l-20.3,20.3l-3.2-3.2l-0.1-0.1l-3.3,3.3l-3.6,3.6
	C1102.6,99,1109.1,117.5,1109.1,137.4z M1333.9,137.4c0,49.8-40.5,90.3-90.3,90.3c-49.8,0-90.3-40.5-90.3-90.3
	c0-20.2,6.7-38.9,17.9-53.9l-6.3-6.3l-0.1,0.1l-3.2,3.2l-20.3-20.3l20.3-20.3l20.3,20.3l-3.1,3.2l-0.1,0.1l5.7,5.7
	c13.3-11.5,29.9-19.2,48.2-21.4V38h-9.9V15.3h42.6V38h-9.9v9.9c18.2,2.4,34.7,10.2,47.8,21.8l3-3l3.3-3.3l-3.2-3.2l20.3-20.3
	l20.3,20.3l-20.3,20.3l-3.2-3.2l-0.1-0.1l-3.3,3.3l-3.6,3.6C1327.4,99,1333.9,117.5,1333.9,137.4z M1558.7,137.4
	c0,49.8-40.5,90.3-90.3,90.3c-49.8,0-90.3-40.5-90.3-90.3c0-20.2,6.7-38.9,17.9-53.9l-6.3-6.3l-0.1,0.1l-3.2,3.2l-20.3-20.3
	l20.3-20.3l20.3,20.3l-3.1,3.2l-0.1,0.1l5.7,5.7c13.3-11.5,29.9-19.2,48.2-21.4V38h-9.9V15.3h42.6V38h-9.9v9.9
	c18.2,2.4,34.7,10.2,47.8,21.8l3-3l3.3-3.3l-3.2-3.2l20.3-20.3l20.3,20.3l-20.3,20.3l-3.2-3.2l-0.1-0.1l-3.3,3.3l-3.6,3.6
	C1552.2,99,1558.7,117.5,1558.7,137.4z"/>
</svg>
